4076.631405  
4067.585908  
4062.081602  
4069.574423  
4057.484302  
4040.810823  
4032.728585  
4034.921492  
4040.684756  
4039.597873  
4035.850228  
4046.429081  
4054.060295  
4055.052069  
4055.003286  
4061.387047  
4064.573661  
4059.650069  
4045.793  
4043.944551  
4039.516787  
4030.740201  
4038.421112  
4045.569615  
4045.320093  
4045.875446  
4061.740915  
4073.776111  
4068.843746  
4070.128762  
4082.639189  
4090.357919  
4083.726051  
4080.319668  
4087.844997  
4082.493892  
4068.196974  
4056.201316  
4064.218008  
4053.169096  
4040.973668  
4044.389104  
4058.243201  
4067.664578  
4063.863008  
4074.343518  
4072.614371  
4071.805233  
4062.473912  
4063.339599  
4066.337486  
4064.62681  
4061.017441  
4061.895953  
4067.569644  
4061.402131  
4058.664134  
4064.811083  
4069.693047  
4065.031357  
4066.569026  
4073.125496  
4072.729788  
4067.543815  
4066.820522  
4081.473495  
4097.612979  
4098.806473  
4100.009355  
4113.577592  
4117.702421  
4110.604305  
4105.855838  
4111.902869  
4105.3726  
4093.05264  
4087.403689  
4079.995652  
4071.397472  
4054.82395  
4057.135168  
4066.460674  
4068.303696  
4066.748291  
4069.716697  
4072.669127  
4067.0543  
4062.010875  
4064.924694  
4071.571924  
4077.592578  
4063.863408  
4051.601567  
4040.853569  
4043.304332  
4041.69492  
4052.53594  
4069.1899  
4074.369363  
4071.485074  
4079.733151  
4086.185356  
4080.942516  
4069.497151  
4073.09298  
4068.358795  
4052.847178  
4044.480037  
4046.508673  
4046.869377  
4047.040952  
4048.307558  
4058.259445  
4063.766324  
4056.905351  
4057.138788  
4057.322227  
4049.1983  
4057.454544  
4052.457655  
4061.208583  
4067.103528  
4058.310823  
4053.157705  
4053.044287  
4048.592319  
4041.633234  
4047.279392  
4058.03972  
4064.306957  
4063.188193  
4063.560885  
4073.459331  
4075.34713  
4073.337873  
4065.37093  
4067.822852  
4069.229997  
4076.132879  
4061.862944  
4055.388478  
4061.690285  
4064.233303  
4058.013744  
4054.618632  
4059.532858  
4055.617129  
4055.136473  
4045.400047  
4052.572225  
4061.489135  
4058.839229  
4056.294065  
4053.271456  
4059.872084  
4060.939007  
4059.025586  
4051.198192  
4055.138248  
4064.056872  
4073.16264  
4072.555716  
4091.352329  
4101.382602  
4103.322724  
4098.95121  
4096.23317  
4095.543828  
4091.961158  
4077.566841  
4077.967148  
4072.963052  
4058.654084  
4058.541506  
4070.981019  
4057.918153  
4049.232491  
4036.422411  
4039.009623  
4038.062552  
4046.606851  
4066.149964  
4071.253893  
4060.971597  
4046.580639  
4037.22876  
4037.065454  
4038.406167  
4041.45387  
4050.952785  
4060.249432  
4066.649309  
4067.232767  
4064.212778  
4058.468276  
4035.916371  
4019.010701  
4017.594753  
4010.086695  
4017.295939  
4005.338554  
4016.575167  
4025.251973  
4020.419242  
4022.402269  
4024.140355  
4030.904973  
4028.872955  
4043.034894  
4059.182026  
4061.117968  
4067.3634  
4072.87558  
4075.846741  
4080.734061  
4074.222815  
4068.548618  
4069.261086  
4074.735357  
4063.305067  
4064.470575  
4082.275253  
4088.885728  
4102.283566  
4110.608806  
4134.375565  
4122.95339  
4119.04985  
4119.330838  
4124.972956  
4122.023461  
4112.226126  
4097.800076  
4090.617913  
4079.70947  
4070.411962  
4067.875058  
4069.85134  
4081.503172  
4086.175953  
4086.78016  
4096.243791  
4103.557966  
4095.634125  
4083.512993  
4082.881687  
4083.47451  
4076.821842  
4065.506991  
4069.725535  
4072.579731  
4073.648246  
4071.769692  
4075.748288  
4079.722374  
4076.834171  
4080.312395  
4088.670818  
4087.601293  
4080.358427  
4073.394318  
4075.218333  
4082.908974  
4082.665454  
4076.986845  
4074.52029  
4076.575099  
4070.786691  
4061.844985  
4058.772544  
4058.988779  
4051.208787  
4055.150143  
4066.779226  
4086.529938  
4082.855062  
4082.242702  
4082.880243  
4095.820553  
4098.299578  
4093.728594  
4099.178021  
4101.653031  
4094.695164  
4094.138068  
4091.063889  
4103.206785  
4095.654289  
4092.138375  
4100.315826  
4109.416814  
4109.188932  
4102.55533  
4097.99204  
4098.901855  
4092.150553  
4075.585884  
4064.081808  
4059.835644  
4049.541871  
4041.210234  
4040.663387  
4048.748615  
4053.711655  
4053.709657  
4052.692692  
4061.89111  
4057.199355  
4051.857804  
4059.534691  
4070.613148  
4069.25578  
4067.335395  
4059.685691  
4062.003491  
4060.716922  
4057.35381  
4047.036694  
4053.363078  
4062.82814  
4068.944247  
4070.473626  
4078.931967  
4080.136796  
4080.279762  
4077.527544  
4087.954926  
4086.877589  
4085.443241  
4083.256711  
4080.028887  
4079.613872  
4081.147217  
4085.539743  
4087.015613  
4088.1057  
4082.267702  
4082.406261  
4089.317402  
4085.3426  
4077.837951  
4065.325408  
4065.525139  
4062.431639  
4057.868884  
4058.900255  
4058.576125  
4061.000819  
4063.243191  
4059.321607  
4060.038508  
4065.139015  
4065.879527  
4060.951364  
4062.807315  
4070.535304  
4076.54945  
4066.063216  
4059.687436  
4060.998393  
4058.206817  
4048.168406  
4037.287642  
4046.559536  
4050.145749  
4051.738351  
4050.645175  
4063.062292  
4072.18057  
4075.415688  
4073.077696  
4072.653878  
4080.002399  
4071.688128  
4059.282896  
4060.652101  
4070.091928  
4076.258461  
4079.003142  
4061.03453  
4049.587395  
4064.27849  
4063.4577  
4057.195316  
4056.303208  
4077.68986  
4087.521974  
4094.569659  
4099.250724  
4106.86255  
4103.738658  
4085.685874  
4073.965557  
4065.77078  
4050.083552  
4036.131771  
4025.204148  
4023.575149  
4022.750647  
4017.967049  
4028.592321  
4040.462496  
4041.792386  
4050.333552  
4063.707764  
4072.059311  
4073.510435  
4077.910633  
4092.980958  
4100.89575  
4092.86048  
4091.935855  
4089.817005  
4068.964469  
4055.652566  
4060.139118  
4086.814016  
4112.919946  
4125.096129  
4127.872243  
4138.275375  
4140.982432  
4137.250103  
4121.432938  
4113.698108  
4111.334306  
4104.02117  
4099.440063  
4098.169924  
4097.526596  
4093.680793  
4086.41451  
4066.627186  
4072.729243  
4045.937141  
4033.523766  
4035.597278  
4046.692026  
4050.756736  
4050.67094  
4053.074051  
4057.191943  
4059.12838  
4052.604571  
4056.818629  
4065.5684  
4062.870906  
4059.203047  
4068.586999  
4083.734662  
4091.428205  
4092.490853  
4090.528061  
4094.213248  
4094.478292  
4081.907166  
4071.869539  
4078.271475  
4084.207995  
4082.761524  
4076.549278  
4079.911325  
4083.571385  
4088.294165  
4086.436949  
4088.262799  
4077.467745  
4066.984547  
4058.829743  
4059.431604  
4057.432714  
4056.817821  
4053.037415  
4066.238698  
4068.025132  
4068.698929  
4091.792938  
4091.385067  
4108.28561  
4090.744964  
4092.563303  
4102.337912  
4111.715935  
4104.828862  
4095.607303  
4085.484809  
4075.585093  
4063.977261  
4051.026439  
4049.018059  
4042.199536  
4036.537119  
4031.259431  
4032.585265  
4043.682234  
4047.327629  
4049.904281  
4059.526726  
4081.631645  
4095.863147  
4094.781681  
4089.201242  
4084.562351  
4086.32117  
4078.716098  
4070.025796  
4058.771081  
4059.739113  
4056.936598  
4049.268411  
4046.76327  
4060.107469  
4076.092057  
4089.051224  
4109.566883  
4114.691357  
4110.7763  
4103.694489  
4106.991727  
4113.666889  
4114.923091  
4094.452872  
4087.974071  
4092.691117  
4087.056259  
4064.372238  
4060.728807  
4066.992061  
4070.694956  
4068.28128  
4071.970795  
4079.241537  
4078.563868  
4067.222818  
4069.733212  
4062.737488  
4056.104084  
4047.568766  
4055.18704  
4058.494267  
4064.270405  
4059.86342  
4071.602265  
4081.994359  
4095.191738  
4107.577547  
4098.363289  
4124.827244  
4119.512782  
4108.670248  
4106.952102  
4085.859028  
4069.299389  
4054.581847  
4045.957494  
4047.426161  
4050.346511  
4040.046525  
4041.945763  
4050.660855  
4049.897279  
4056.443139  
4064.072516  
4069.889522  
4075.362084  
4073.705601  
4062.930226  
4064.247566  
4059.31814  
4054.581803  
4055.736097  
4054.260627  
4062.743962  
4063.239675  
4056.197891  
4074.941783  
4089.287555  
4095.965704  
4095.478988  
4100.783938  
4106.742215  
4102.606606  
4091.523182  
4085.650605  
4085.611179  
4086.237223  
4075.265074  
4074.618565  
4080.601019  
4078.015888  
4072.911054  
4068.484124  
4076.089774  
4075.266417  
4068.374478  
4066.547049  
4079.918768  
4091.639334  
4096.154995  
4087.982739  
4095.134404  
4093.033788  
4079.61038  
4068.411065  
4064.651007  
4067.707083  
4061.075252  
4049.136483  
4036.939557  
4043.12064  
4055.415369  
4056.978446  
4062.603791  
4078.941024  
4087.733515  
4091.452797  
4092.099617  
4096.907015  
4089.735602  
4078.639048  
