4177.58089  
4160.975133  
4151.470695  
4110.322068  
4071.9883  
4047.499368  
4039.612214  
4045.163985  
4055.655995  
4071.641078  
4088.104239  
4094.139393  
4074.943014  
4053.657627  
4049.666041  
4065.669581  
4082.14227  
4085.564431  
4075.665155  
4060.706249  
4055.330226  
4044.921406  
4051.468089  
4083.39205  
4130.456775  
4150.001312  
4160.035586  
4151.873355  
4124.674243  
4108.183051  
4111.146454  
4127.179141  
4142.335242  
4146.932561  
4148.856328  
4149.779409  
4141.986789  
4106.820561  
4078.334348  
4066.21324  
4077.753953  
4086.856241  
4100.095186  
4117.685204  
4133.78115  
4131.01146  
4120.564625  
4123.36079  
4121.799755  
4110.321291  
4093.692074  
4084.859966  
4081.904805  
4050.526818  
4025.58129  
4020.822588  
4020.550333  
4047.549151  
4083.594826  
4113.877342  
4141.991617  
4168.111379  
4181.978458  
4187.877227  
4190.707631  
4177.85563  
4176.269162  
4168.050304  
4161.114605  
4136.924978  
4118.727739  
4115.933042  
4087.043927  
4050.791526  
4036.186167  
4050.385973  
4077.824202  
4077.796628  
4086.619684  
4111.797108  
4135.571264  
4151.294182  
4159.766132  
4153.545171  
4115.458849  
4085.419117  
4081.380842  
4096.160329  
4103.051526  
4098.146497  
4105.572411  
4125.90085  
4139.058784  
4143.272857  
4152.69815  
4133.213187  
4103.743047  
4076.004144  
4056.037184  
4052.948169  
4081.045021  
4121.955683  
4156.364074  
4162.888667  
4175.06294  
4190.843818  
4191.217412  
4175.246401  
4158.003216  
4149.851345  
4136.822564  
4118.295003  
4099.08106  
4102.385138  
4094.655164  
4093.025593  
4091.055882  
4102.926815  
4110.532781  
4116.360799  
4118.76293  
4121.781844  
4122.445114  
4118.037094  
4120.595379  
4123.777995  
4125.972838  
4123.611843  
4121.89714  
4134.867717  
4144.342296  
4145.578721  
4149.231342  
4151.497067  
4123.761791  
4090.473452  
4069.54585  
4060.906716  
4073.627955  
4082.692762  
4110.4013  
4131.310781  
4163.509665  
4190.970214  
4201.547674  
4224.543094  
4227.885161  
4213.486895  
4199.788335  
4194.368259  
4170.030036  
4142.7844  
4114.773783  
4108.287345  
4092.201544  
4057.166112  
4043.252115  
4056.768121  
4085.510887  
4098.789329  
4115.478827  
4136.145056  
4144.995713  
4147.059029  
4116.008641  
4090.740998  
4074.19378  
4050.827836  
4060.850905  
4098.305254  
4132.460952  
4143.783424  
4161.663082  
4157.146028  
4140.694139  
4118.100638  
4093.735799  
4083.040967  
4069.847715  
4064.140868  
4091.735106  
4132.980948  
4141.433075  
4155.839725  
4145.218405  
4129.463563  
4136.306152  
4138.275875  
4126.118046  
4126.599933  
4107.730493  
4088.482428  
4070.004747  
4038.078939  
4024.385241  
4013.189084  
4039.464693  
4067.965522  
4094.330356  
4110.536152  
4132.687002  
4145.040876  
4138.263492  
4131.033777  
4127.541319  
4101.224885  
4067.090969  
4050.806975  
4064.25342  
4076.946182  
4108.425676  
4125.229886  
4118.465668  
4136.877656  
4128.177927  
4093.997592  
4086.112247  
4082.918137  
4082.432636  
4105.81276  
4143.86045  
4177.097728  
4202.210425  
4187.062157  
4159.900231  
4162.329787  
4163.442092  
4146.153281  
4141.101735  
4162.975597  
4166.979857  
4132.06402  
4107.289179  
4085.888323  
4076.251491  
4077.075525  
4078.459659  
4076.968007  
4080.334802  
4070.793594  
4047.220458  
4030.485064  
4023.411576  
4027.740399  
4038.54714  
4046.553633  
4053.743688  
4064.060662  
4054.674281  
4011.126397  
4046.264644  
4016.098903  
4018.107706  
4032.721095  
4065.371676  
4096.705086  
4122.448192  
4125.82265  
4107.831865  
4096.615624  
4109.51457  
4138.101467  
4153.246687  
4166.958189  
4162.979708  
4155.638221  
4141.539044  
4118.483895  
4097.664695  
4096.946269  
4104.968504  
4119.915985  
4139.624088  
4160.118432  
4171.350625  
4166.232106  
4163.01706  
4128.807726  
4099.390784  
4091.831551  
4098.275376  
4109.411891  
4098.683457  
4096.133103  
4100.144228  
4116.686012  
4124.73818  
4139.47142  
4124.095637  
4097.338435  
4086.928878  
4063.68087  
4063.49878  
4100.827346  
4138.478742  
4158.953042  
4163.432046  
4160.237535  
4127.233798  
4104.64724  
4114.653107  
4129.898547  
4129.474154  
4128.576025  
4128.526682  
4124.56979  
4118.162803  
4108.108205  
4107.633056  
4108.411359  
4104.234702  
4097.768918  
4095.094499  
4098.877981  
4098.558291  
4098.831574  
4100.938674  
4106.348168  
4109.767609  
4108.113823  
4117.463898  
4129.189368  
4134.17973  
4135.543176  
4133.010369  
4106.554865  
4100.293704  
4114.680327  
4150.798828  
4177.798142  
4197.834131  
4207.988923  
4222.27025  
4222.583933  
4212.444282  
4194.178326  
4186.753357  
4171.032422  
4153.789873  
4129.58697  
4130.207331  
4122.752945  
4124.028654  
4123.145994  
4130.721759  
4130.742623  
4102.878373  
4074.34306  
4084.191968  
4103.651703  
4121.041665  
4098.316632  
4094.539241  
4100.459103  
4095.073598  
4103.15746  
4108.032234  
4125.819042  
4151.253503  
4181.866487  
4207.013131  
4211.714616  
4205.82755  
4186.828676  
4161.482331  
4149.020192  
4145.367124  
4150.159755  
4141.015958  
4127.966399  
4131.401804  
4140.462866  
4101.230957  
4067.280545  
4073.404609  
4094.555893  
4105.273209  
4120.194869  
4134.869272  
4145.003697  
4140.053827  
4132.313114  
4123.553139  
4089.544747  
4067.311338  
4083.992259  
4093.68064  
4085.57771  
4075.929597  
4075.38136  
4081.113817  
4091.971878  
4100.532702  
4114.689584  
4098.168122  
4075.221587  
4071.364926  
4093.05914  
4111.283399  
4128.992352  
4141.478866  
4155.50052  
4177.439036  
4174.66643  
4166.433295  
4167.320892  
4136.32345  
4102.076983  
4095.005562  
4113.857358  
4129.182167  
4138.412083  
4151.815613  
4163.39504  
4171.97227  
4168.944875  
4166.092031  
4179.153867  
4179.983894  
4171.894369  
4178.722173  
4168.385104  
4161.217747  
4136.831257  
4138.087514  
4119.635738  
4082.106128  
4067.657555  
4087.716928  
4107.455102  
4102.837532  
4097.996486  
4122.950975  
4155.173661  
4185.816759  
4185.753197  
4178.647603  
4159.285097  
4130.025122  
4125.091479  
4127.98607  
4122.205237  
4118.173013  
4138.062552  
4139.463692  
4138.147372  
4123.643682  
4105.816557  
4096.204397  
4096.051535  
4101.862668  
4090.720531  
4065.354751  
4049.405866  
4058.312983  
4060.407183  
4066.206663  
4068.252928  
4057.870239  
4034.889904  
4023.518346  
4021.926487  
4041.893773  
4065.744846  
4087.220001  
4105.892041  
4122.61151  
4113.907889  
4081.148657  
4058.66058  
4066.887152  
4081.358225  
4101.368228  
4120.366465  
4140.369937  
4150.351596  
4149.72597  
4139.278235  
4135.712805  
4131.647408  
4122.457726  
4111.496787  
4113.539268  
4117.215693  
4112.729341  
4109.329018  
4112.255613  
4087.607414  
4065.980659  
4056.973319  
4079.35848  
4107.053051  
4127.995264  
4150.764721  
4177.847021  
4181.997229  
4184.913632  
4182.920238  
4181.582239  
4155.258105  
4120.564554  
4103.202195  
4094.044307  
4094.364628  
4076.399702  
4074.159574  
4091.852208  
4110.692432  
4135.021457  
4159.807425  
4166.445487  
4167.764607  
4172.12295  
4175.804406  
4161.968905  
4142.469434  
4141.195826  
4128.134741  
4112.622167  
4101.542917  
4102.238596  
4078.012655  
4049.29306  
4051.781845  
4085.841961  
4093.311393  
4104.016227  
4118.002491  
4126.890872  
4129.723576  
4116.146201  
4093.57524  
4078.026589  
4082.108371  
4096.602852  
4122.541091  
4138.866465  
4146.636809  
4153.953528  
4153.418315  
4149.363493  
4139.054678  
4131.19694  
4134.244955  
4126.941186  
4120.514175  
4124.756551  
4128.572935  
4114.086816  
4080.162815  
4070.728027  
4082.145248  
4105.453169  
4108.250697  
4097.203882  
4098.176244  
4094.651544  
4106.596033  
4138.490942  
4173.512604  
4184.559204  
4206.971139  
4201.505159  
4173.486959  
4162.918573  
4169.285797  
4177.454521  
4176.758223  
4176.81772  
4184.014275  
4174.139696  
4148.047054  
4133.725194  
4130.341567  
4130.654955  
4135.318659  
4133.729586  
4135.201065  
4117.791376  
4090.280464  
4073.977246  
4103.884727  
4120.825362  
4145.040488  
4161.016457  
4172.449551  
4188.6029  
4191.39527  
4189.19742  
4178.279476  
4171.303878  
4155.835911  
4137.048775  
4144.375244  
4118.061183  
4106.22484  
4086.800945  
4076.801277  
4080.345812  
4087.217295  
4086.875218  
4068.333792  
4052.994738  
4047.423848  
4061.970803  
4074.964796  
4112.828992  
4122.604549  
4133.799221  
4130.431821  
4135.180512  
4133.394658  
4127.073502  
4101.734148  
4104.088068  
4092.192266  
4064.035885  
4043.069049  
4057.372176  
4078.270131  
