4150.396145  
4120.835299  
4076.907616  
4051.478681  
4043.137741  
4061.200527  
4066.97332  
4065.288276  
4066.233279  
4060.438895  
4052.325548  
4075.454838  
4109.625714  
4137.861441  
4142.820112  
4143.832685  
4151.614388  
4145.027479  
4134.669849  
4115.572182  
4103.855249  
4106.523552  
4103.82821  
4079.557577  
4074.228393  
4077.131913  
4064.165873  
4038.857254  
4031.492923  
4063.190197  
4096.009354  
4125.986974  
4145.387587  
4170.597665  
4187.122862  
4190.91876  
4189.346239  
4187.365191  
4178.178151  
4157.7759  
4131.098641  
4117.23277  
4095.239293  
4076.918076  
4068.212619  
4063.761768  
4062.020469  
4065.811589  
4072.027917  
4081.364479  
4082.093263  
4053.357249  
4036.670631  
4038.14513  
4054.750402  
4069.124537  
4097.243344  
4129.722315  
4146.373527  
4152.967431  
4143.328343  
4118.278003  
4100.918014  
4108.096578  
4120.665185  
4137.371247  
4137.299761  
4135.96534  
4141.229214  
4135.452189  
4103.014901  
4067.565023  
4059.105761  
4061.359305  
4075.335132  
4083.452457  
4105.909885  
4120.446439  
4126.331165  
4104.286895  
4084.396383  
4077.437808  
4084.742238  
4095.550676  
4115.998788  
4123.121741  
4129.423938  
4134.569392  
4131.223711  
4108.115171  
4091.960856  
4089.437437  
4097.084508  
4111.529376  
4111.823229  
4091.713164  
4083.316055  
4087.499125  
4088.400102  
4102.389882  
4132.48387  
4160.116554  
4172.915464  
4156.440861  
4127.344183  
4102.78024  
4073.878127  
4058.823633  
4060.483232  
4058.365993  
4071.626218  
4096.344013  
4123.631262  
4138.066897  
4140.288225  
4124.606478  
4094.967748  
4081.674989  
4091.131128  
4097.354456  
4104.942022  
4121.960329  
4146.274583  
4125.803722  
4075.274717  
4080.146852  
4074.040036  
4072.046646  
4086.346535  
4086.807366  
4089.573756  
4091.136977  
4086.096582  
4078.892917  
4052.23741  
4008.826579  
3989.529517  
3989.778526  
3995.554166  
4016.954867  
4039.195766  
4061.285567  
4084.738406  
4074.821739  
4045.260451  
4029.84518  
4034.492845  
4054.342655  
4075.859179  
4092.431965  
4111.1217  
4118.793761  
4122.30644  
4128.280619  
4122.651797  
4085.29811  
4068.630768  
4088.578744  
4107.524109  
4123.540795  
4134.64069  
4155.493283  
4170.005134  
4174.299961  
4176.081791  
4185.273063  
4164.663688  
4121.455431  
4095.787507  
4103.293274  
4115.342692  
4115.559121  
4095.417583  
4099.728847  
4085.943904  
4092.961963  
4112.619803  
4140.057156  
4168.360413  
4177.077644  
4163.743177  
4127.608021  
4120.475183  
4130.728739  
4144.40722  
4121.131375  
4104.094698  
4100.155109  
4090.723615  
4092.401745  
4117.327188  
4140.696535  
4152.158344  
4160.104318  
4155.501061  
4125.906213  
4111.18821  
4105.401484  
4116.269253  
4117.371089  
4113.668572  
4095.34039  
4075.256947  
4072.989526  
4092.259248  
4118.56811  
4124.199114  
4114.361953  
4103.423968  
4079.008971  
4085.717851  
4088.576537  
4114.447189  
4132.00979  
4131.141141  
4128.850124  
4136.443579  
4116.692691  
4076.862205  
4077.663793  
4093.653672  
4105.442761  
4117.797735  
4140.891989  
4149.954879  
4151.612509  
4129.866137  
4103.831337  
4098.334718  
4101.731116  
4122.411988  
4133.258395  
4139.659402  
4145.788014  
4161.464097  
4156.297104  
4104.828401  
4087.488363  
4108.589203  
4110.171342  
4111.62388  
4123.536988  
4140.982355  
4150.870687  
4131.472915  
4099.983201  
4087.691756  
4096.596855  
4107.929768  
4116.411171  
4129.366271  
4133.060594  
4130.972197  
4129.634555  
4129.823175  
4126.730404  
4113.782763  
4084.92983  
4076.322687  
4059.693858  
4061.353197  
4091.805688  
4121.633231  
4145.36846  
4153.133678  
4166.486259  
4168.20522  
4163.984799  
4155.81994  
4155.85011  
4120.520876  
4076.380691  
4069.420064  
4080.167289  
4097.450698  
4107.593207  
4138.296829  
4149.030454  
4156.046552  
4134.956645  
4102.619894  
4087.922242  
4097.935435  
4107.950255  
4120.51282  
4128.986086  
4147.607119  
4140.636899  
4158.232981  
4159.279083  
4145.100313  
4138.529131  
4138.877742  
4100.661498  
4066.208177  
4066.077633  
4085.322989  
4103.620193  
4117.221934  
4134.107839  
4148.127048  
4151.859524  
4146.757445  
4151.460227  
4136.124402  
4093.099582  
4068.741406  
4066.890271  
4087.114239  
4107.177642  
4120.952569  
4156.902005  
4154.401891  
4151.52492  
4134.585089  
4113.239913  
4075.056911  
4065.456767  
4064.302425  
4068.515398  
4094.690674  
4136.67286  
4175.417875  
4189.873163  
4197.60797  
4162.715145  
4118.909319  
4097.092328  
4091.007342  
4091.629927  
4071.58508  
4063.572318  
4070.161607  
4082.167163  
4086.290833  
4093.688375  
4102.678131  
4102.1986  
4088.41966  
4075.468278  
4057.632927  
4035.019964  
4061.328927  
4088.305891  
4112.778214  
4131.651651  
4139.990833  
4133.346846  
4134.892488  
4127.08401  
4114.926867  
4104.050236  
4103.990921  
4113.320798  
4126.696341  
4122.964087  
4098.510373  
4091.504933  
4069.758365  
4075.601713  
4110.943693  
4139.341284  
4162.230329  
4189.907798  
4202.149567  
4201.200439  
4184.043628  
4175.049206  
4157.658798  
4137.632055  
4115.939803  
4106.511456  
4103.764836  
4101.957507  
4076.32664  
4053.135868  
4053.836944  
4067.000372  
4082.412095  
4069.100446  
4065.924827  
4064.936904  
4073.442615  
4067.785713  
4069.236396  
4094.715056  
4144.431565  
4175.322431  
4188.116724  
4217.50565  
4193.33831  
4154.581136  
4133.14904  
4137.254942  
4132.760789  
4119.949578  
4116.558649  
4106.766244  
4116.107909  
4094.255258  
4085.829411  
4080.513246  
4067.362989  
4046.483264  
4032.666942  
4038.910878  
4061.675398  
4087.721145  
4111.873149  
4127.618887  
4131.672646  
4139.908121  
4147.299221  
4134.666747  
4100.533687  
4081.179075  
4080.151789  
4093.986273  
4100.123047  
4089.2407  
4089.583943  
4103.28757  
4126.19937  
4144.949783  
4170.664669  
4178.370654  
4150.479582  
4143.200268  
4135.27087  
4127.41735  
4107.763539  
4067.699498  
4054.019307  
4056.099284  
4074.540191  
4078.686433  
4067.110978  
4066.613785  
4089.378969  
4114.154904  
4148.818896  
4171.13352  
4175.137463  
4171.145642  
4143.870943  
4116.367656  
4122.054235  
4145.413968  
4155.510717  
4139.294056  
4138.619007  
4117.918821  
4102.455269  
4112.372953  
4134.97601  
4143.755213  
4138.501882  
4146.569098  
4125.021302  
4105.583445  
4107.336149  
4133.068375  
4148.152341  
4148.439996  
4140.217046  
4137.107628  
4133.279384  
4124.557529  
4101.281026  
4096.790301  
4070.42207  
4057.844472  
4049.68899  
4079.130391  
4098.057887  
4118.447041  
4129.76359  
4144.413105  
4150.442108  
4146.492005  
4150.059423  
4143.4731  
4142.655318  
4145.696236  
4133.112371  
4102.940141  
4081.168401  
4081.631221  
4096.057082  
4107.53883  
4133.948472  
4150.904528  
4160.167181  
4164.661564  
4146.379449  
4109.920878  
4094.25983  
4107.972346  
4123.107359  
4141.061364  
4142.977735  
4150.879471  
4158.028974  
4154.494356  
4144.89463  
4137.34822  
4139.998109  
4137.92739  
4127.619819  
4097.100191  
4078.213779  
4080.995712  
4099.834217  
4115.008944  
4113.827341  
4121.681399  
4147.368208  
4166.027402  
4185.765169  
4208.049704  
4209.148885  
4170.947188  
4152.731769  
4152.611033  
4151.5733  
4134.905321  
4124.71313  
4116.055406  
4084.018886  
4067.05367  
4071.590724  
4099.161439  
4123.126393  
4136.881208  
4163.374318  
4170.529719  
4155.738046  
4119.049807  
4095.364151  
4088.216366  
4096.422335  
4104.931854  
4092.201437  
4095.362025  
4106.522502  
4134.625589  
4162.090523  
4184.458243  
4185.018614  
4183.873027  
4171.107513  
4170.635554  
4156.605847  
4142.761443  
4126.141667  
4106.721467  
4097.895061  
4094.59893  
4102.174653  
4089.950259  
4094.080344  
4101.37309  
4100.874818  
4084.577207  
4059.05415  
4058.357613  
4072.547763  
4093.388424  
4119.406994  
4145.04707  
4163.037523  
4163.824174  
4161.47456  
4130.077321  
4118.2494  
4124.50962  
4139.236398  
4145.960231  
4147.417362  
4149.458965  
4152.38299  
4164.307679  
4146.433541  
4112.219566  
4109.1152  
4113.83984  
4101.136745  
4079.953397  
4060.381124  
4050.90784  
4053.611044  
4079.002151  
4110.109538  
4136.814188  
4166.092217  
4173.403307  
4146.456467  
4116.173801  
4117.955967  
4131.994579  
4147.665532  
4144.225935  
4140.047716  
4128.502919  
4118.378965  
4109.627091  
4085.438169  
4064.591559  
4073.287556  
4094.537882  
4105.142081  
4114.669008  
4122.804583  
4130.888396  
4137.241529  
4132.250282  
4139.546198  
4133.474004  
4108.547501  
4088.536861  
