4119.608041  
4125.152739  
4116.377021  
4123.283904  
4130.889612  
4130.817751  
4119.654151  
4112.692619  
4111.910344  
4104.159373  
4095.738079  
4082.490558  
4073.166295  
4079.053901  
4084.13636  
4075.09953  
4081.210503  
4081.945115  
4083.338222  
4079.9592  
4082.526456  
4091.043856  
4088.106666  
4089.4164  
4080.312432  
4088.018457  
4086.513948  
4076.263353  
4074.102997  
4075.947814  
4081.351335  
4078.237731  
4083.792201  
4097.082462  
4105.294744  
4111.296461  
4118.208793  
4128.764168  
4133.606902  
4129.057329  
4123.926149  
4120.931621  
4112.802964  
4095.256777  
4098.04447  
4085.226233  
4075.758868  
4069.45324  
4077.084718  
4089.862617  
4085.143937  
4080.040855  
4091.268846  
4096.52391  
4090.973916  
4095.346672  
4094.977876  
4100.706463  
4103.223939  
4095.293755  
4101.918502  
4108.583677  
4105.810926  
4101.147051  
4101.351327  
4114.20631  
4121.533955  
4119.648281  
4115.853786  
4126.362865  
4137.691092  
4131.789759  
4122.61277  
4123.028115  
4114.720638  
4106.749825  
4093.709687  
4088.765789  
4097.623076  
4081.226757  
4074.365845  
4076.682177  
4082.198939  
4105.669877  
4107.526731  
4096.913633  
4095.286929  
4109.632377  
4105.552646  
4098.730908  
4077.743383  
4068.201053  
4065.068807  
4086.774303  
4079.536986  
4093.808797  
4128.786824  
4148.511686  
4142.671563  
4118.035721  
4105.196913  
4093.517562  
4073.138804  
4056.040099  
4039.865989  
4032.176919  
4037.697727  
4055.84029  
4042.097825  
4046.278616  
4049.603442  
4049.281694  
4049.99279  
4055.041518  
4070.048308  
4080.955142  
4084.070421  
4096.761445  
4113.188738  
4116.796006  
4126.154711  
4133.684563  
4136.405859  
4128.471783  
4122.819057  
4122.128234  
4112.684074  
4109.258465  
4113.613352  
4115.685769  
4113.930099  
4111.701297  
4101.685763  
4102.742375  
4108.89656  
4106.778693  
4099.51143  
4104.465968  
4118.411158  
4124.721569  
4127.082833  
4119.842724  
4123.487044  
4123.248829  
4130.330343  
4122.077904  
4130.361971  
4125.730674  
4117.216646  
4110.651212  
4112.234287  
4120.543997  
4119.186495  
4112.218104  
4121.775375  
4124.059659  
4120.451481  
4116.046574  
4121.035826  
4112.952825  
4100.597941  
4099.93172  
4112.642215  
4115.00166  
4106.263373  
4108.056634  
4115.342832  
4117.655876  
4106.382216  
4107.51859  
4105.41855  
4104.813765  
4104.251989  
4107.005908  
4106.25155  
4105.603325  
4101.752974  
4109.171991  
4103.807317  
4114.842408  
4106.238082  
4114.989804  
4135.099518  
4136.515393  
4134.950241  
4132.544734  
4134.834262  
4137.876366  
4140.815509  
4126.501163  
4109.702533  
4111.883839  
4110.147389  
4103.483402  
4109.55867  
4117.54202  
4127.713047  
4134.356369  
4128.266099  
4119.195051  
4116.210002  
4109.278057  
4103.090298  
4090.096906  
4088.085527  
4084.548899  
4082.88385  
4079.459764  
4089.026506  
4103.760266  
4107.039853  
4106.533447  
4113.116147  
4117.522629  
4119.662247  
4107.893814  
4110.187571  
4109.310838  
4102.585122  
4114.1476  
4107.470052  
4112.569295  
4106.497098  
4099.284281  
4115.700733  
4128.256467  
4131.777621  
4134.447844  
4143.209641  
4145.008086  
4137.043517  
4122.004641  
4118.867005  
4113.8826  
4099.610313  
4085.55696  
4087.872317  
4088.758164  
4089.684075  
4093.534855  
4098.268786  
4115.932855  
4125.852537  
4126.902437  
4121.781761  
4127.940291  
4130.542279  
4116.15499  
4105.513778  
4101.240536  
4107.210183  
4105.458577  
4097.844917  
4098.575954  
4101.674139  
4109.062863  
4108.313694  
4114.549075  
4134.453915  
4142.929545  
4144.272215  
4137.751455  
4135.977178  
4134.639973  
4131.533685  
4119.671794  
4104.355279  
4103.533101  
4097.607134  
4094.329314  
4093.953538  
4107.506604  
4113.870615  
4114.189055  
4118.702453  
4129.798057  
4132.297157  
4126.83588  
4122.368767  
4114.865483  
4103.242557  
4100.220659  
4104.065001  
4107.444946  
4109.742336  
4112.032432  
4115.786346  
4119.858057  
4134.423594  
4138.931868  
4149.977595  
4154.396701  
4165.224493  
4161.533381  
4172.295967  
4166.276798  
4153.85119  
4151.606056  
4108.692388  
4093.699702  
4084.972765  
4102.137707  
4098.029722  
4084.338388  
4090.327046  
4091.416471  
4078.056516  
4085.273263  
4097.582406  
4098.005382  
4093.996246  
4100.451175  
4108.139037  
4103.600669  
4105.285521  
4115.1847  
4106.931371  
4091.372747  
4089.48404  
4093.807029  
4105.094126  
4096.317153  
4090.381414  
4101.098539  
4103.734318  
4095.107204  
4094.603008  
4099.365526  
4100.237948  
4096.351693  
4093.594963  
4099.443666  
4113.430698  
4103.134794  
4091.694454  
4091.789167  
4094.440571  
4089.56078  
4088.497086  
4097.466818  
4105.081109  
4104.226085  
4103.949122  
4114.083827  
4114.352319  
4111.360609  
4107.026664  
4111.556991  
4108.063982  
4097.721827  
4093.631126  
4100.930648  
4100.352018  
4098.937628  
4097.286612  
4102.315403  
4110.149703  
4100.299869  
4098.511958  
4098.449293  
4107.524121  
4111.085958  
4103.560154  
4098.347887  
4108.33259  
4111.988328  
4106.981151  
4101.894793  
4111.272617  
4122.394093  
4125.766339  
4133.981308  
4131.646624  
4135.160222  
4131.122636  
4122.463033  
4119.991298  
4120.96604  
4115.154909  
4106.350799  
4105.042962  
4110.780423  
4113.023111  
4114.046248  
4107.127225  
4116.931094  
4135.100218  
4125.044602  
4127.669787  
4144.277349  
4149.940301  
4148.863411  
4133.422256  
4139.453924  
4145.363678  
4137.200205  
4130.548684  
4128.532792  
4131.637843  
4134.071557  
4116.291539  
4101.877743  
4096.192888  
4104.235388  
4112.374861  
4109.09074  
4104.804129  
4105.105282  
4109.871748  
4099.221502  
4090.344381  
4095.09939  
4102.392419  
4109.920696  
4110.93989  
4109.680929  
4126.626799  
4142.991797  
4145.787397  
4146.191825  
4151.30354  
4160.142628  
4169.912991  
4155.044703  
4141.640148  
4140.504502  
4135.582084  
4144.259671  
4138.541657  
4121.457273  
4118.529314  
4122.188051  
4124.8316  
4111.972441  
4124.954399  
4128.183566  
4130.296052  
4139.090563  
4151.297406  
4153.58031  
4143.960614  
4148.996791  
4139.652129  
4121.58916  
4116.113729  
4112.612774  
4110.130264  
4103.875287  
4109.792007  
4125.244655  
4124.878827  
4121.76915  
4117.403751  
4119.738863  
4120.544084  
4108.225539  
4104.305038  
4103.883355  
4114.302314  
4128.212859  
4129.861478  
4118.41003  
4101.310056  
4104.733072  
4107.208959  
4104.412216  
4095.834512  
4102.502555  
4113.791806  
4115.811577  
4106.254151  
4107.041897  
4104.442561  
4096.109815  
4084.272068  
4081.529657  
4083.647521  
4085.274374  
4083.696549  
4087.987706  
4098.03058  
4109.80431  
4133.044069  
4139.178566  
4133.50953  
4151.56497  
4149.883908  
4146.86721  
4140.040554  
4141.543733  
4142.736057  
4131.141131  
4119.37178  
4115.811512  
4118.415815  
4129.748813  
4130.894032  
4144.393262  
4140.092528  
4143.043776  
4141.34156  
4125.005933  
4126.894437  
4129.466651  
4126.325423  
4116.454096  
4123.676124  
4133.798992  
4144.038134  
4140.970842  
4146.585521  
4161.222868  
4171.185821  
4168.620871  
4173.196923  
4183.381087  
4182.412795  
4172.836955  
4171.131768  
4176.829671  
4166.621048  
4151.630201  
4137.860453  
4135.266684  
4122.742357  
4115.453063  
4110.057227  
4119.784834  
4130.893394  
4128.602794  
4117.259982  
4125.522278  
4129.729264  
4127.736841  
4124.551539  
4134.826049  
4137.418607  
4138.361971  
4121.941109  
4090.948503  
4080.872578  
4076.871241  
4079.43928  
4085.440551  
4114.474056  
4152.246736  
4173.739553  
4175.61987  
4173.465786  
4177.070014  
4178.679291  
4159.484945  
4138.569728  
4134.892616  
4131.406926  
4126.570453  
4118.124296  
4117.082037  
4117.387318  
4113.731065  
4111.287972  
4129.179998  
4145.83536  
4152.22478  
4138.409994  
4133.500657  
4134.946476  
4130.657486  
4123.590106  
4119.849124  
4138.989935  
4137.432605  
4136.011144  
4133.354863  
4139.700009  
4144.777816  
4137.262592  
4128.759628  
4138.819799  
4144.142997  
4142.788845  
4146.935537  
4125.664134  
4131.1054  
4098.320515  
4102.613988  
4113.436891  
4126.324884  
4128.936655  
4120.42403  
4122.39014  
4131.336624  
4139.518411  
4142.758578  
4121.785775  
4124.184103  
4126.525601  
4125.115757  
4117.48024  
4107.92361  
4115.56051  
4125.211513  
4134.146914  
4127.634618  
4120.258768  
4118.948609  
4125.482749  
4130.336401  
4121.229324  
4116.120623  
4117.420799  
4113.910649  
4109.176167  
4112.499639  
4116.810816  
4123.951773  
4128.396505  
4138.686658  
4160.994988  
4155.735457  
